{
  "instructors": [
    {
      "id": 1,
      "firstName": "Michelangelo",
      "lastName": "Buornarroti"
    },
    {
      "id": 2,
      "firstName": "Leonardo",
      "lastName": "da Vinci"
    },
    {
      "id": 3,
      "firstName": "Vandinelli",
      "lastName": "Bartolommeo"
    },
    {
      "id": 4,
      "firstName": "Lorenzo",
      "lastName": "Ghiberti"
    },
    {
      "id": 5,
      "firstName": "Benvenuto",
      "lastName": "Chellini"
    },
    {
      "id": 6,
      "firstName": "Bernando",
      "lastName": "Rosselini"
    },
    {
      "id": 7,
      "firstName": "Guido",
      "lastName": "Mazzoni"
    },
    {
      "id": 8,
      "firstName": "Viet",
      "lastName": "Stoss"
    },
    {
      "id": 9,
      "firstName": "Alessandro",
      "lastName": "Vittoria"
    }
  ]
}